///// MMRFSHO /////
floor SHOWATX water
floor SHOWATL1 water
floor SHOWATL2 water
floor SHOFALX1 water
floor SHOFALX2 water

////////////////////
///// MMRFPLA /////
floor PLWATX water
floor PGEFALX water

////////////////////
///// MMRFTHE /////
floor THELAVX lava
floor THELA2X lava

////////////////////
